• 2020-12-12
@测试1: 测试1
@测试2: 测试2
$ 测试1.1 测试1.2
$ 测试2.1 测试2.1
# 测试1.1 测试1.1
# 测试2.1 测试2.1

• 2020-12-13
@测试1: 测试1
@测试2: 测试2
$ 测试1.1 测试1.2
$ 测试2.1 测试2.1
# 测试1.1 测试1.1
# 测试2.1 测试2.1




• 2020-12-14
@: “（不拉窗帘）把老师照晕了”，是这意思吧。

• 2020-12-14
@: 瞅（王孜烁）别掉抗儿里啊，马上抢救。
# 王孜烁

• 2020-12-14
@老师1: 你们都收到答案了吗?
@同学们1: 收到了。
@老师2: 我老早都给他（王孜烁）发了，他10点才回我。你们几点收到的？
@同学们2: 11点。
@老师3: 师这是刚起的节奏啊，还假装蒙我：“我不拿手机啊！”
# 王孜烁

• 2020-12-14
@: 高考没有这题，高考人家里板擦得好着呢，跟狗舔的似的。

• 2020-12-14
@: 不知道（就）瞎说，满嘴跑火车那可不行。

• 2020-12-14
@: 仨考官，有一个美女考官，那（四名同学，测试者）没出息劲儿都上美女去了，有这可能吧。

• 2020-12-14
@: 抽中“一等奖好”烟1条，“二等奖”中等酒2瓶，“新年快乐”啥也没有。

• 2020-12-14
@: 要是考不好，我咬哪儿呢？咬脑门子，来盘炒脑门子。咬脑门子也不行，咬胳膊。

• 2020-12-14
@老师1: 诶？我说的是人话吧？你们是人吧？
@老师2: 那就好好听懂吧。

• 2020-12-14
@: 12月15日是我儿子和儿媳妇的生日，我明天要好好庆祝一下，海螃蟹、河螃蟹、虾米，现在也不让买，网购。

• 2020-12-14
@: 那也不能我就铺它两米厚化肥，那也不浇水，等会儿不就烧死了？

• 2020-12-14
@: 吃着好着呢，也不运动，睡得跟猪似的那能不胖吗?

• 2020-12-14
@: 你比如我抽烟的多少，决定美国总统的寿命长短吗？跟你们有点儿关系，“我总抽老李的二手烟，少活三秒”是吧。